PPOL670 Final Project
…
4.1 Unigram

# calculate the number of times that the unigram is used in that goal
unigram_tfidf <- token1_linkages %>%
  count(goal, unigram, sort = TRUE)

# calculate tfidf
unigram_tfidf <- unigram_tfidf %>%
  bind_tf_idf(unigram, goal, n) %>%
  arrange(desc(tf_idf))

unigram_tfidf

## # A tibble: 24,490 x 6
##    goal                                 unigram       n      tf   idf tf_idf
##    <fct>                                <chr>     <int>   <dbl> <dbl>  <dbl>
##  1 Goal 3 - Good Health and Well-being  borne        45 0.0119  2.14  0.0255
##  2 Goal 5 - Gender Equality             gender       33 0.0389  0.531 0.0206
##  3 Goal 3 - Good Health and Well-being  vector       29 0.00767 2.14  0.0164
##  4 Goal 7 - Affordable and Clean Energy mw          184 0.00884 1.73  0.0153
##  5 Goal 3 - Good Health and Well-being  diseases     82 0.0217  0.636 0.0138
##  6 Goal 14 - Life Below Water           coastal     156 0.0491  0.268 0.0132
##  7 Goal 3 - Good Health and Well-being  malaria      27 0.00714 1.73  0.0124
##  8 Goal 4 - Quality Education           education    97 0.0446  0.268 0.0120
##  9 Goal 10 - Reduced Inequalities       adat          2 0.00412 2.83  0.0117
## 10 Goal 5 - Gender Equality             women        28 0.0330  0.348 0.0115
## #  with 24,480 more rows
…
4.2 Bigram

# calculate the number of times that the bigram is used in that goal
bigram_tfidf <- token2_linkages %>%
  count(goal, bigram, sort = TRUE) %>%
  bind_tf_idf(bigram, goal, n) %>%
  arrange(desc(tf_idf))

bigram_tfidf

## # A tibble: 36,061 x 6
##    goal                               bigram              n      tf   idf tf_idf
##    <fct>                              <chr>           <int>   <dbl> <dbl>  <dbl>
##  1 Goal 3 - Good Health and Well-bei vector borne       21 0.0107   2.83 0.0304
##  2 Goal 3 - Good Health and Well-bei borne diseases     27 0.0138   2.14 0.0296
##  3 Goal 14 - Life Below Water         coastal zone       31 0.0205   1.22 0.0251
##  4 Goal 3 - Good Health and Well-bei health sector      26 0.0133   1.73 0.0231
##  5 Goal 5 - Gender Equality           human rights        7 0.0171   1.04 0.0178
##  6 Goal 10 - Reduced Inequalities     inclusive mech     3 0.0119   1.45 0.0172
##  7 Goal 14 - Life Below Water         coastal erosion    12 0.00795  2.14 0.0170
##  8 Goal 5 - Gender Equality           gender respons     4 0.00978  1.73 0.0170
##  9 Goal 16 - Peace, Justice and Stro sectoral adapt     4 0.00789  2.14 0.0169
## 10 Goal 10 - Reduced Inequalities     human rights        4 0.0158   1.04 0.0165
## #  with 36,051 more rows
…
